<svg xmlns="http://www.w3.org/2000/svg" width="24" height="22" viewBox="0 0 24 22">
    <g fill="none" fill-rule="evenodd">
        <path fill="#FFF" fill-rule="nonzero" d="M12.381 7a5.4 5.4 0 0 0-1.386 10.614L12.381 19l1.386-1.386A5.4 5.4 0 0 0 12.381 7zm0 1.2a1.8 1.8 0 1 1 0 3.6 1.8 1.8 0 0 1 0-3.6zm0 8.58a4.32 4.32 0 0 1-3.6-1.932c.018-1.194 2.4-1.848 3.6-1.848 1.2 0 3.582.654 3.6 1.848a4.32 4.32 0 0 1-3.6 1.932z"/>
        <path d="M0-1h24v24H0z"/>
        <path fill="#FFF" fill-rule="nonzero" d="M4.356 21.408H19.89c.56 0 1.014-.454 1.014-1.014V10.297l1.376 1.225a1.01 1.01 0 0 0 1.432-.084 1.014 1.014 0 0 0-.083-1.432L12.674.256a1.014 1.014 0 0 0-1.348 0L.37 10.007a1.014 1.014 0 0 0 1.348 1.516l1.623-1.445v10.317c0 .56.454 1.014 1.014 1.014zM12 2.372l6.877 6.12V19.38H5.37V8.272l6.63-5.9z"/>
    </g>
</svg>
