<svg xmlns="http://www.w3.org/2000/svg" xmlns:xlink="http://www.w3.org/1999/xlink" width="30" height="30" viewBox="0 0 30 30">
    <defs>
        <linearGradient id="b" x1="-6.709%" x2="106.709%" y1="0%" y2="100%">
            <stop offset="0%" stop-color="#14B349"/>
            <stop offset="100%" stop-color="#09A04F"/>
        </linearGradient>
        <path id="a" d="M15 0C6.72 0 0 6.72 0 15c0 8.28 6.72 15 15 15 8.28 0 15-6.72 15-15 0-8.28-6.72-15-15-15z"/>
    </defs>
    <g fill="none" fill-rule="evenodd">
        <use fill="url(#b)" fill-rule="nonzero" opacity=".95" xlink:href="#a"/>
        <g fill="#2A535F" stroke="#000" stroke-opacity="0" opacity=".05">
            <path d="M19.98 25.893c-1.213-1.184-1.499-3.144-1.996-4.696-.239-.745-1.31-3.917-1.767-4.444l.084-.086c2.699 1.636 7.018 1.393 9.268 3.591 1.366 1.336.883 2.895.562 4.515l-.085-.013c-.029 0 .014-.068.015-.085.005-.071.003-.05.004-.128-.003-.071 0-.142.01-.213.024-.14.032-.283.025-.425-.005-.303.026-.544-.038-.85-.11-.528-.27-1.237-.779-1.734l-.086-.084c-1.035-1.012-3.252-1.23-4.212-.249l-.336.344c-.948.97-.697 3.186.304 4.163l.086.084c.9.88 2.598.913 3.509.725l-.014.085c.001.045-1.004.355-1.1.37-.4.06-.746.054-1.148.06a3.311 3.311 0 0 1-2.307-.93z"/>
            <path d="M23.754 24.034a1.4 1.4 0 1 0-2.003-1.958 1.4 1.4 0 0 0 2.003 1.958zM9.744 4.474c1.212 1.185 1.498 3.144 1.995 4.697.239.745 1.31 3.916 1.767 4.443l-.084.086c-2.699-1.635-7.018-1.393-9.268-3.591-1.366-1.335-.883-2.895-.562-4.514l.085.013c.029 0-.014.067-.015.085-.005.07-.003.05-.004.127.003.072 0 .143-.01.213-.024.14-.032.283-.025.426.005.302-.026.543.038.85.11.527.27 1.236.779 1.734l.086.084c1.035 1.012 3.252 1.23 4.212.249l.336-.345c.948-.97.697-3.185-.304-4.163l-.086-.084c-.9-.88-2.598-.913-3.509-.724l.014-.086c0-.044 1.004-.355 1.1-.37.4-.06.746-.054 1.148-.06a3.312 3.312 0 0 1 2.307.93z"/>
            <path d="M5.969 6.334a1.4 1.4 0 1 0 2.003 1.958A1.4 1.4 0 0 0 5.97 6.334zM26.03 19.158c-1.695 0-3.27-1.201-4.71-1.964-.691-.366-3.674-1.886-4.37-1.944v-.12c3.074-.716 5.994-3.908 9.14-3.908 1.91 0 2.654 1.453 3.557 2.836l-.07.05c-.02.02-.038-.058-.05-.072-.045-.054-.032-.038-.085-.094a1.135 1.135 0 0 1-.142-.159 1.982 1.982 0 0 0-.28-.322c-.214-.213-.361-.406-.62-.58-.448-.302-1.057-.697-1.77-.697h-.12c-1.447 0-3.186 1.393-3.186 2.765v.482c0 1.356 1.727 2.765 3.126 2.765h.12c1.26 0 2.497-1.163 3.017-1.934l.05.07c.032.032-.47.956-.53 1.034-.243.323-.494.56-.778.845a3.312 3.312 0 0 1-2.3.947z"/>
            <path d="M27.43 15.19a1.4 1.4 0 1 0-2.801 0 1.4 1.4 0 0 0 2.801 0zM3.617 19.158c1.695 0 3.269-1.201 4.71-1.964.69-.366 3.674-1.886 4.37-1.944v-.12c-3.074-.716-5.994-3.908-9.14-3.908-1.91 0-2.654 1.453-3.557 2.836l.07.05c.02.02.038-.058.049-.072.046-.054.033-.038.086-.094.052-.048.1-.102.142-.159.081-.117.175-.225.28-.322.214-.213.36-.406.62-.58.448-.302 1.057-.697 1.77-.697h.12c1.447 0 3.186 1.393 3.186 2.765v.482c0 1.356-1.727 2.765-3.126 2.765h-.12c-1.26 0-2.497-1.163-3.017-1.934l-.05.07c-.032.032.47.956.53 1.034.242.323.494.56.778.845.614.603 1.439.942 2.3.947z"/>
            <path d="M2.217 15.19a1.4 1.4 0 1 1 2.801 0 1.4 1.4 0 0 1-2.801 0zM10.828 26.345c0-1.695 1.202-3.269 1.965-4.71.366-.691 1.885-3.674 1.943-4.37h.12c.716 3.074 3.908 5.994 3.908 9.14 0 1.91-1.453 2.654-2.835 3.557l-.05-.07c-.021-.02.057-.038.07-.049.055-.046.039-.033.095-.086.049-.052.102-.1.159-.142.117-.081.225-.175.322-.28.213-.214.406-.36.58-.62.302-.448.697-1.057.697-1.77v-.12c0-1.447-1.392-3.186-2.765-3.186h-.481c-1.357 0-2.766 1.728-2.766 3.126v.12c0 1.26 1.163 2.498 1.934 3.017l-.07.05c-.032.032-.956-.47-1.034-.53-.322-.242-.56-.494-.845-.778a3.311 3.311 0 0 1-.947-2.3z"/>
            <path d="M14.796 27.745a1.4 1.4 0 1 0 0-2.801 1.4 1.4 0 0 0 0 2.801z"/>
            <g>
                <path d="M9.686 26.037c1.212-1.185 1.498-3.144 1.995-4.696.239-.745 1.31-3.917 1.767-4.444l-.084-.086c-2.699 1.636-7.018 1.393-9.268 3.591-1.366 1.336-.883 2.895-.562 4.515l.085-.013c.029 0-.014-.068-.015-.086-.005-.07-.003-.05-.004-.127.003-.071 0-.142-.01-.213a1.974 1.974 0 0 1-.025-.425c.005-.303-.026-.544.038-.85.11-.528.27-1.236.779-1.734l.086-.084c1.035-1.012 3.252-1.231 4.212-.25l.336.345c.948.97.697 3.186-.304 4.163l-.086.084c-.9.88-2.598.913-3.509.725l.014.085c0 .045 1.004.355 1.1.37.4.06.746.054 1.148.06a3.312 3.312 0 0 0 2.307-.93z"/>
                <path d="M5.91 24.178a1.4 1.4 0 1 1 2.004-1.958 1.4 1.4 0 0 1-2.003 1.958z"/>
            </g>
            <g>
                <path d="M19.938 4.474c-1.212 1.184-1.498 3.144-1.995 4.696-.238.745-1.31 3.917-1.767 4.444l.084.086c2.699-1.636 7.018-1.393 9.268-3.592 1.366-1.335.883-2.894.562-4.514l-.085.013c-.029 0 .014.068.015.085.005.071.003.05.004.128-.003.071 0 .142.01.213.024.14.032.283.025.425-.005.303.026.544-.038.85-.11.528-.269 1.237-.778 1.734l-.086.084c-1.036 1.012-3.253 1.231-4.213.25l-.336-.345c-.948-.97-.697-3.185.304-4.163l.086-.084c.9-.88 2.599-.913 3.509-.725l-.013-.085c0-.045-1.005-.355-1.102-.37-.398-.06-.745-.054-1.147-.06a3.311 3.311 0 0 0-2.307.93z"/>
                <path d="M23.713 6.333a1.4 1.4 0 1 1-2.003 1.958 1.4 1.4 0 0 1 2.003-1.958z"/>
            </g>
            <g>
                <path d="M10.828 3.618c0 1.694 1.202 3.268 1.965 4.709.366.691 1.885 3.674 1.943 4.37h.12c.716-3.074 3.908-5.994 3.908-9.14 0-1.91-1.453-2.654-2.835-3.557l-.05.07c-.02.02.057.038.07.049.055.046.039.033.095.086.049.052.102.1.16.142.116.081.224.175.32.28.214.214.407.36.582.62.3.448.696 1.057.696 1.77v.12c0 1.447-1.392 3.186-2.765 3.186h-.481c-1.357 0-2.766-1.728-2.766-3.126v-.12c0-1.26 1.163-2.497 1.934-3.017l-.07-.05c-.032-.032-.956.47-1.034.53-.322.242-.56.494-.845.778a3.311 3.311 0 0 0-.947 2.3z"/>
                <path d="M14.796 5.018a1.4 1.4 0 1 0 0-2.801 1.4 1.4 0 0 0 0 2.801z"/>
            </g>
            <path d="M14.863 16.194a1.029 1.029 0 1 0 0-2.058 1.029 1.029 0 0 0 0 2.058z"/>
        </g>
        <g fill="#FFF" fill-rule="nonzero">
            <path d="M19.946 14.32l-6.626-4.185c-.574-.353-1.32.027-1.32.68v8.37c0 .653.775 1.033 1.32.68l6.626-4.186a.79.79 0 0 0 0-1.358z"/>
            <path d="M15 5.104c-5.458 0-9.896 4.438-9.896 9.896 0 5.458 4.438 9.896 9.896 9.896 5.458 0 9.896-4.438 9.896-9.896 0-5.458-4.438-9.896-9.896-9.896zm0 18.25c-4.604 0-8.354-3.75-8.354-8.354 0-4.604 3.75-8.354 8.354-8.354 4.604 0 8.354 3.75 8.354 8.354 0 4.604-3.75 8.354-8.354 8.354z"/>
        </g>
    </g>
</svg>
