<svg xmlns="http://www.w3.org/2000/svg" width="21" height="21" viewBox="0 0 21 21">
    <path fill="#152D4E" fill-rule="nonzero" d="M20.416 13.953a10.493 10.493 0 0 0-.034-7.004A10.5 10.5 0 0 0 10.5 0a10.5 10.5 0 1 0 0 21 10.5 10.5 0 0 0 9.916-7.047zM10.5 19.49c-.4 0-1.044-.723-1.58-2.339a16.47 16.47 0 0 1-.619-2.652h4.407c-.133.9-.34 1.787-.62 2.652-.543 1.616-1.188 2.34-1.588 2.34zm-2.386-6.495a27.982 27.982 0 0 1 0-4.992h4.771a27.982 27.982 0 0 1 0 4.992H8.114zM1.5 10.5c0-.844.118-1.685.353-2.496h4.75a29.394 29.394 0 0 0 0 4.992H1.859a8.962 8.962 0 0 1-.353-2.496h-.004zm8.995-8.991c.4 0 1.045.723 1.58 2.339.279.865.486 1.752.619 2.652H8.296a16.47 16.47 0 0 1 .621-2.648c.539-1.62 1.183-2.343 1.583-2.343h-.004zm3.9 6.496h4.748c.47 1.63.47 3.36 0 4.99h-4.749a29.394 29.394 0 0 0 0-4.99zM18.551 6.5h-4.33a14.435 14.435 0 0 0-1.37-4.678 9.032 9.032 0 0 1 5.7 4.678zM8.148 1.822A14.434 14.434 0 0 0 6.778 6.5H2.445c1.148-2.3 3.222-4.001 5.702-4.678zM2.446 14.5h4.331a14.436 14.436 0 0 0 1.371 4.68 9.033 9.033 0 0 1-5.702-4.68zm10.405 4.68a14.434 14.434 0 0 0 1.37-4.68h4.331a9.033 9.033 0 0 1-5.7 4.68h-.001z" opacity=".3"/>
</svg>
